{
  "project_info": {
    "project_number": "813152389773",
    "project_id": "ice-cream-521d9",
    "storage_bucket": "ice-cream-521d9.appspot.com"
  },
  "client": [
    {
      "client_info": {
        "mobilesdk_app_id": "1:813152389773:android:c54793cfb3eead8dbeb0c4",
        "android_client_info": {
          "package_name": "com.example.flutter_firebase_auth"
        }
      },
      "oauth_client": [
        {
          "client_id": "813152389773-874h5q562m0edbqpehavvpej8m8ahcpq.apps.googleusercontent.com",
          "client_type": 1,
          "android_info": {
            "package_name": "com.example.flutter_firebase_auth",
            "certificate_hash": "b7ee33b5a69f6eea0f827e2a48d4424d1d966ba7"
          }
        },
        {
          "client_id": "813152389773-4de9iqk4h6e23ucc7fie5fq4ouhu8h3n.apps.googleusercontent.com",
          "client_type": 3
        }
      ],
      "api_key": [
        {
          "current_key": "AIzaSyCfyl5JB5srTgwvw36xuDxnnI24jL8vWKY"
        }
      ],
      "services": {
        "appinvite_service": {
          "other_platform_oauth_client": [
            {
              "client_id": "813152389773-4de9iqk4h6e23ucc7fie5fq4ouhu8h3n.apps.googleusercontent.com",
              "client_type": 3
            }
          ]
        }
      }
    }
  ],
  "configuration_version": "1"
}